<?xml version="1.0" encoding="UTF-8" standalone="no"?>
<svg width="1280px" height="659px" viewBox="0 0 1280 659" version="1.1" xmlns="http://www.w3.org/2000/svg" xmlns:xlink="http://www.w3.org/1999/xlink">
    <!-- Generator: Sketch 50.2 (55047) - http://www.bohemiancoding.com/sketch -->
    <title>img</title>
    <desc>Created with Sketch.</desc>
    <defs>
        <path d="M0,6.00029439 C0,2.6864233 2.68268176,0 6.00263427,0 L3347.99737,0 C3351.31253,0 3354,2.68978612 3354,6.00029439 L3354,659 L0,659 L0,6.00029439 Z" id="path-1"></path>
    </defs>
    <g id="pg-flow" stroke="none" stroke-width="1" fill="none" fill-rule="evenodd">
        <g id="kb-activate-samsung" transform="translate(0.000000, -43.000000)">
            <g id="content-main" transform="translate(-1037.000000, 43.000000)">
                <g id="img">
                    <mask id="mask-2" fill="white">
                        <use xlink:href="#path-1"></use>
                    </mask>
                    <use id="Mask" fill="#1EADE2" xlink:href="#path-1"></use>
                    <g id="AI-Vector" mask="url(#mask-2)">
                        <g transform="translate(-219.000000, -1600.000000)">
                            <polygon id="Fill-1" fill="#CBEFFB" points="188.025157 2296.73778 3597.88679 2296.73778 3597.88679 1571.71901 188.025157 1571.71901"></polygon>
                            <rect id="Rectangle" fill="#88CFE9" opacity="0.196819196" transform="translate(988.918512, 1361.826273) rotate(28.000000) translate(-988.918512, -1361.826273) " x="565.814397" y="939.696267" width="846.208229" height="844.260013" rx="17"></rect>
                            <rect id="Rectangle-Copy" fill="#88CFE9" opacity="0.196819196" transform="translate(762.678922, 2058.858713) rotate(28.000000) translate(-762.678922, -2058.858713) " x="198.742129" y="1496.22027" width="1127.87359" height="1125.2769" rx="17"></rect>
                            <path d="M2413.06834,1990.16388 L3484.50465,2558.54507 C3538.0284,2586.93863 3558.34733,2653.24585 3529.88825,2706.64638 L2960.19546,3775.61593 C2931.73637,3829.01646 2865.27615,3849.28861 2811.75239,3820.89504 L1740.31608,3252.51385 C1686.79233,3224.12028 1666.4734,3157.81307 1694.93248,3104.41254 L2264.62527,2035.44299 C2293.08436,1982.04246 2359.54458,1961.77031 2413.06834,1990.16388 Z" id="Rectangle-Copy-4" fill="#88CFE9" opacity="0.168247768" transform="translate(2612.410365, 2905.529459) scale(-1, 1) translate(-2612.410365, -2905.529459) "></path>
                            <polygon id="Fill-2" fill="#FFD05A" points="1559.19377 2408.27913 1887.13225 2408.27913 1977.55908 2160.0149 1692.11191 2057.20945"></polygon>
                            <g id="Group-21" stroke-width="1" fill="none" transform="translate(1677.188813, 1664.220951)">
                                <path d="M279.670116,517.120612 L185.973719,517.120612 C183.867729,517.120612 182.160494,515.406823 182.160494,513.29275 C182.160494,511.178676 183.867729,509.464887 185.973719,509.464887 L279.670116,509.464887 C281.776106,509.464887 283.483342,511.178676 283.483342,513.29275 C283.483342,515.406823 281.776106,517.120612 279.670116,517.120612 Z" id="Stroke-3" stroke="#FFFFFF" stroke-width="0.715"></path>
                                <path d="M48.6976026,133.78752 C19.2812919,145.817945 33.4447008,183.002896 31.2657148,230.030921 C29.0867288,277.058947 0.759911098,295.651422 0.759911098,332.836373 C0.759911098,370.021323 31.2657148,408.299948 31.2657148,408.299948 L145.662479,444.391224 L145.662479,359.084573 L99.3590266,165.504096 C99.3590266,165.504096 78.1139133,121.757095 48.6976026,133.78752" id="Fill-5" fill="#E2C1AF"></path>
                                <path d="M246.957654,221.288411 C249.318585,221.288411 251.717648,221.020461 254.116712,220.462687 L432.793562,178.903036 C449.794011,174.949401 460.381704,157.909945 456.442097,140.846427 C452.50358,123.781816 435.5271,113.151295 418.52992,117.107117 L239.85307,158.666768 C222.853711,162.620403 212.267107,179.65986 216.205624,196.724471 C219.5885,211.38081 232.586152,221.288411 246.957654,221.288411" id="Fill-7" fill="#E2C1AF"></path>
                                <path d="M246.956564,298.939884 C249.399207,298.939884 251.882162,298.663184 254.362937,298.085724 L433.039788,256.526074 C450.625294,252.435729 461.577967,234.808969 457.503263,217.15596 C453.429649,199.504046 435.867022,188.508237 418.284784,192.599675 L239.606844,234.159326 C222.022428,238.248577 211.069755,255.875337 215.144458,273.528345 C218.64391,288.689962 232.089343,298.939884 246.956564,298.939884" id="Fill-9" fill="#E2C1AF"></path>
                                <path d="M415.016196,268.062814 L236.339346,309.622464 C218.75384,313.712809 207.801167,331.338475 211.87587,348.991484 C215.375322,364.1531 228.820755,374.403023 243.687976,374.403023 C246.130619,374.403023 248.613574,374.126323 251.09435,373.548862 L429.7712,331.989212 C447.357796,327.898867 458.309379,310.273201 454.234675,292.620193 C450.159972,274.967184 432.598434,263.972469 415.016196,268.062814" id="Fill-11" fill="#E2C1AF"></path>
                                <path d="M410.3061,348.910442 L231.62925,390.470093 C215.802185,394.150309 205.945542,410.014065 209.612776,425.901882 C212.7625,439.547665 224.863498,448.772814 238.243562,448.772814 C240.442159,448.772814 242.676709,448.523456 244.90908,448.002867 L423.58593,406.443216 C439.412995,402.763 449.270727,386.899244 445.602404,371.011427 C441.935171,355.124704 426.130986,345.223664 410.3061,348.910442" id="Fill-13" fill="#E2C1AF"></path>
                                <path d="M348.929513,540.634625 L116.713887,540.634625 C100.811648,540.634625 87.9196771,527.693169 87.9196771,511.728794 L87.9196771,29.2649994 C87.9196771,13.3006253 100.811648,0.35916885 116.713887,0.35916885 L348.929513,0.35916885 C364.832842,0.35916885 377.724812,13.3006253 377.724812,29.2649994 L377.724812,511.728794 C377.724812,527.693169 364.832842,540.634625 348.929513,540.634625" id="Fill-15" fill="#30465C"></path>
                                <path d="M314.883401,16.764294 C311.939591,16.764294 153.703809,16.764294 150.759998,16.764294 L125.635201,16.764294 C113.229144,16.764294 103.172034,27.0021858 103.172034,39.6308512 L103.172034,499.175593 C103.172034,511.805352 113.229144,522.04215 125.635201,522.04215 L340.008199,522.04215 C352.414256,522.04215 362.471366,511.805352 362.471366,499.175593 L362.471366,39.6308512 C362.471366,27.0021858 352.414256,16.764294 340.008199,16.764294 L314.883401,16.764294 Z" id="Fill-17" fill="#88CFE9"></path>
                                <path d="M232.821918,270.496897 C229.735384,270.496897 227.199045,269.500559 225.215078,267.508977 C223.230022,265.516301 222.238583,262.971319 222.238583,259.872938 L222.238583,206.750955 C222.238583,203.652574 223.230022,201.107592 225.215078,199.114916 C227.199045,197.123334 229.735384,196.126996 232.821918,196.126996 C235.908451,196.126996 238.444791,197.123334 240.428758,199.114916 C242.413814,201.107592 243.405253,203.652574 243.405253,206.750955 L243.405253,259.872938 C243.405253,262.971319 242.413814,265.516301 240.428758,267.508977 C238.444791,269.500559 235.908451,270.496897 232.821918,270.496897 M273.502497,208.411154 C283.866843,215.272871 292.023877,224.12617 297.977957,234.972145 C303.930946,245.81812 306.907441,257.65934 306.907441,270.496897 C306.907441,291.082048 299.686282,308.622408 285.243963,323.120164 C270.801643,337.61792 253.327265,344.866798 232.821918,344.866798 C212.315481,344.866798 194.842192,337.61792 180.399873,323.120164 C165.957554,308.622408 158.736395,291.082048 158.736395,270.496897 C158.736395,257.65934 161.712889,245.81812 167.665879,234.972145 C173.619958,224.12617 181.778082,215.272871 192.141339,208.411154 C193.905228,207.304355 195.779156,206.750955 197.763123,206.750955 C200.850746,206.750955 203.385996,207.747293 205.371052,209.738875 C207.355019,211.731551 208.347547,214.276533 208.347547,217.376008 C208.347547,219.36759 207.796264,221.248711 206.693697,223.019371 C205.811208,224.348186 205.039847,225.232969 204.378524,225.675908 C204.378524,225.89683 204.157357,226.118846 203.717202,226.339768 L203.05588,226.672245 C199.527012,229.327688 196.991762,231.430825 195.44795,232.979469 C185.085783,243.382506 179.904154,255.88868 179.904154,270.496897 C179.904154,285.105114 185.085783,297.611288 195.44795,308.014325 C205.811208,318.416268 218.26956,323.617786 232.821918,323.617786 C247.374276,323.617786 259.832628,318.416268 270.195885,308.014325 C280.558053,297.611288 285.739682,285.105114 285.739682,270.496897 C285.739682,255.88868 280.558053,243.382506 270.195885,232.979469 C268.652074,231.430825 266.116824,229.327688 262.587956,226.672245 C262.367878,226.450229 261.926634,226.118846 261.265311,225.675908 C260.603989,225.232969 259.832628,224.348186 258.950139,223.019371 C257.848661,221.248711 257.296288,219.36759 257.296288,217.376008 C257.296288,214.276533 258.288816,211.731551 260.272783,209.738875 C262.257839,207.747293 264.794179,206.750955 267.880713,206.750955 C269.864679,206.750955 271.739697,207.304355 273.502497,208.411154" id="Fill-19" fill="#CBEFFB"></path>
                            </g>
                        </g>
                    </g>
                </g>
            </g>
        </g>
    </g>
</svg>